G04 #@! TF.FileFunction,Profile,NP*
%FSLAX46Y46*%
G04 Gerber Fmt 4.6, Leading zero omitted, Abs format (unit mm)*
G04 Created by KiCad (PCBNEW 4.0.7-e2-6376~58~ubuntu16.04.1) date Mon Jan 15 15:18:41 2018*
%MOMM*%
%LPD*%
G01*
G04 APERTURE LIST*
%ADD10C,0.100000*%
%ADD11C,0.150000*%
G04 APERTURE END LIST*
D10*
D11*
X252500000Y-27100000D02*
G75*
G03X252100000Y-26700000I-400000J0D01*
G01*
X252100000Y-90100000D02*
G75*
G03X252500000Y-89700000I0J400000D01*
G01*
X145200000Y-89700000D02*
G75*
G03X145600000Y-90100000I400000J0D01*
G01*
X145500000Y-26700000D02*
G75*
G03X145100000Y-27100000I0J-400000D01*
G01*
X145200000Y-89700000D02*
X145100000Y-27100000D01*
X252100000Y-90100000D02*
X145600000Y-90100000D01*
X252500000Y-27100000D02*
X252500000Y-89700000D01*
X145500000Y-26700000D02*
X252100000Y-26700000D01*
M02*
