(export (version D)
  (design
    (source /home/edge/Documentos/arduino_mega_shield_fotovotaica/fotovoltaica/fotovoltaica.sch)
    (date "Sex 24 Nov 2017 10:54:53 -03")
    (tool "Eeschema 4.0.7-e2-6376~58~ubuntu16.04.1")
    (sheet (number 1) (name /) (tstamps /)
      (title_block
        (title)
        (company)
        (rev)
        (date)
        (source fotovoltaica.sch)
        (comment (number 1) (value ""))
        (comment (number 2) (value ""))
        (comment (number 3) (value ""))
        (comment (number 4) (value "")))))
  (components
    (comp (ref P3)
      (value Corrente)
      (footprint Pin_Headers:Pin_Header_Straight_1x03_Pitch2.54mm)
      (libsource (lib fotovoltaica-cache) (part CONN_01X03))
      (sheetpath (names /) (tstamps /))
      (tstamp 59E7B7C3))
    (comp (ref P5)
      (value CONN_01X04)
      (footprint Terminal_Blocks:TerminalBlock_Pheonix_PT-3.5mm_4pol)
      (libsource (lib fotovoltaica-cache) (part CONN_01X04))
      (sheetpath (names /) (tstamps /))
      (tstamp 59E7B8C7))
    (comp (ref P1)
      (value TEMP1)
      (footprint Terminal_Blocks:TerminalBlock_Pheonix_PT-3.5mm_3pol)
      (libsource (lib fotovoltaica-cache) (part CONN_01X03))
      (sheetpath (names /) (tstamps /))
      (tstamp 59E7B9D5))
    (comp (ref R1)
      (value 4.7k)
      (footprint Resistors_ThroughHole:Resistor_Horizontal_RM10mm)
      (libsource (lib device) (part R))
      (sheetpath (names /) (tstamps /))
      (tstamp 59E7BA42))
    (comp (ref P4)
      (value TEMP2)
      (footprint Terminal_Blocks:TerminalBlock_Pheonix_PT-3.5mm_3pol)
      (libsource (lib fotovoltaica-cache) (part CONN_01X03))
      (sheetpath (names /) (tstamps /))
      (tstamp 59E7BCBC))
    (comp (ref R2)
      (value 4.7k)
      (footprint Resistors_ThroughHole:Resistor_Horizontal_RM10mm)
      (libsource (lib device) (part R))
      (sheetpath (names /) (tstamps /))
      (tstamp 59E7BD1A))
    (comp (ref SW1)
      (value SW_PUSH)
      (footprint Buttons_Switches_THT:SW_PUSH_6mm)
      (libsource (lib fotovoltaica-cache) (part SW_PUSH))
      (sheetpath (names /) (tstamps /))
      (tstamp 59E7C258))
    (comp (ref SW2)
      (value SW_PUSH)
      (footprint Buttons_Switches_THT:SW_PUSH_6mm)
      (libsource (lib fotovoltaica-cache) (part SW_PUSH))
      (sheetpath (names /) (tstamps /))
      (tstamp 59E7C54E))
    (comp (ref R3)
      (value R)
      (footprint Resistors_ThroughHole:Resistor_Horizontal_RM10mm)
      (libsource (lib device) (part R))
      (sheetpath (names /) (tstamps /))
      (tstamp 59E7C708))
    (comp (ref R4)
      (value R)
      (footprint Resistors_ThroughHole:Resistor_Horizontal_RM10mm)
      (libsource (lib device) (part R))
      (sheetpath (names /) (tstamps /))
      (tstamp 59E7C7AB))
    (comp (ref P2)
      (value Tensão)
      (footprint Pin_Headers:Pin_Header_Straight_1x03_Pitch2.54mm)
      (libsource (lib fotovoltaica-cache) (part CONN_01X03))
      (sheetpath (names /) (tstamps /))
      (tstamp 59E7B663))
    (comp (ref SHIELD1)
      (value ARDUINO_MEGA_SHIELD)
      (footprint "arduino_shields:ARDUINO MEGA SHIELD")
      (libsource (lib arduino_shieldsNCL) (part ARDUINO_MEGA_SHIELD))
      (sheetpath (names /) (tstamps /))
      (tstamp 59EA5768))
    (comp (ref J1)
      (value Conn_01x02)
      (footprint Terminal_Blocks:TerminalBlock_Pheonix_MPT-2.54mm_2pol)
      (libsource (lib conn) (part Conn_01x02))
      (sheetpath (names /) (tstamps /))
      (tstamp 59F366AC))
    (comp (ref U1)
      (value ESP-12)
      (footprint ESP8266:ESP-12)
      (libsource (lib fotovoltaica-cache) (part ESP-12))
      (sheetpath (names /) (tstamps /))
      (tstamp 59E7C12F))
    (comp (ref R5)
      (value 10k)
      (footprint Resistors_ThroughHole:Resistor_Horizontal_RM10mm)
      (libsource (lib device) (part R))
      (sheetpath (names /) (tstamps /))
      (tstamp 5A111163)))
  (libparts
    (libpart (lib arduino_shieldsNCL) (part ARDUINO_MEGA_SHIELD)
      (fields
        (field (name Reference) SHIELD)
        (field (name Value) ARDUINO_MEGA_SHIELD))
      (pins
        (pin (num 0) (name RX0) (type BiDi))
        (pin (num 1) (name TX0) (type BiDi))
        (pin (num 2) (name 2) (type BiDi))
        (pin (num 3) (name 3) (type BiDi))
        (pin (num 4) (name 4) (type BiDi))
        (pin (num 5) (name 5) (type BiDi))
        (pin (num 5V) (name 5V) (type power_in))
        (pin (num 6) (name 6) (type BiDi))
        (pin (num 7) (name 7) (type BiDi))
        (pin (num 8) (name 8) (type BiDi))
        (pin (num 9) (name 9) (type BiDi))
        (pin (num 10) (name 10) (type BiDi))
        (pin (num 11) (name 11) (type BiDi))
        (pin (num 12) (name 12) (type BiDi))
        (pin (num 13) (name 13) (type BiDi))
        (pin (num 14) (name TX3) (type BiDi))
        (pin (num 15) (name RX3) (type BiDi))
        (pin (num 16) (name TX2) (type BiDi))
        (pin (num 17) (name RX2) (type BiDi))
        (pin (num 18) (name TX1) (type BiDi))
        (pin (num 19) (name RX1) (type BiDi))
        (pin (num 20) (name SDA) (type BiDi))
        (pin (num 21) (name SCL) (type BiDi))
        (pin (num 22) (name PA0) (type BiDi))
        (pin (num 23) (name PA1) (type BiDi))
        (pin (num 24) (name PA2) (type BiDi))
        (pin (num 25) (name PA3) (type BiDi))
        (pin (num 26) (name PA4) (type BiDi))
        (pin (num 27) (name PA5) (type BiDi))
        (pin (num 28) (name PA6) (type BiDi))
        (pin (num 29) (name PA7) (type BiDi))
        (pin (num 30) (name PC7) (type BiDi))
        (pin (num 31) (name PC6) (type BiDi))
        (pin (num 32) (name PC5) (type BiDi))
        (pin (num 33) (name PC4) (type BiDi))
        (pin (num 34) (name PC3) (type BiDi))
        (pin (num 35) (name PC2) (type BiDi))
        (pin (num 36) (name PC1) (type BiDi))
        (pin (num 37) (name PC0) (type BiDi))
        (pin (num 38) (name PD7) (type BiDi))
        (pin (num 39) (name PG2) (type BiDi))
        (pin (num 40) (name PG1) (type BiDi))
        (pin (num 41) (name PG0) (type BiDi))
        (pin (num 42) (name PL7) (type BiDi))
        (pin (num 43) (name PL6) (type BiDi))
        (pin (num 44) (name PL5) (type BiDi))
        (pin (num 45) (name PL4) (type BiDi))
        (pin (num 46) (name PL3) (type BiDi))
        (pin (num 47) (name PL2) (type BiDi))
        (pin (num 48) (name PL1) (type BiDi))
        (pin (num 49) (name PL0) (type BiDi))
        (pin (num 50) (name "PB3_(MISO)") (type BiDi))
        (pin (num 51) (name "PB2_(MOSI)") (type BiDi))
        (pin (num 52) (name "PB1_(SCK)") (type BiDi))
        (pin (num 53) (name "PB0_(SS)") (type BiDi))
        (pin (num 3V3) (name 3V3) (type power_in))
        (pin (num 5V_4) (name 5V_4) (type power_in))
        (pin (num 5V_5) (name 5V_5) (type power_in))
        (pin (num AD0) (name AD0) (type BiDi))
        (pin (num AD1) (name AD1) (type BiDi))
        (pin (num AD2) (name AD2) (type BiDi))
        (pin (num AD3) (name AD3) (type BiDi))
        (pin (num AD4) (name AD4) (type BiDi))
        (pin (num AD5) (name AD5) (type BiDi))
        (pin (num AD6) (name AD6) (type BiDi))
        (pin (num AD7) (name AD7) (type BiDi))
        (pin (num AD8) (name AD8) (type BiDi))
        (pin (num AD9) (name AD9) (type BiDi))
        (pin (num AD10) (name AD10) (type BiDi))
        (pin (num AD11) (name AD11) (type BiDi))
        (pin (num AD12) (name AD12) (type BiDi))
        (pin (num AD13) (name AD13) (type BiDi))
        (pin (num AD14) (name AD14) (type BiDi))
        (pin (num AD15) (name AD15) (type BiDi))
        (pin (num AREF) (name AREF) (type power_in))
        (pin (num GND1) (name GND1) (type power_in))
        (pin (num GND2) (name GND2) (type power_in))
        (pin (num GND3) (name GND3) (type power_in))
        (pin (num GND4) (name GND4) (type power_in))
        (pin (num GND5) (name GND5) (type power_in))
        (pin (num RST) (name RST) (type input))
        (pin (num V_IN) (name V_IN) (type power_in))))
    (libpart (lib fotovoltaica-cache) (part CONN_01X03)
      (footprints
        (fp Pin_Header_Straight_1X03)
        (fp Pin_Header_Angled_1X03)
        (fp Socket_Strip_Straight_1X03)
        (fp Socket_Strip_Angled_1X03))
      (fields
        (field (name Reference) P)
        (field (name Value) CONN_01X03))
      (pins
        (pin (num 1) (name P1) (type passive))
        (pin (num 2) (name P2) (type passive))
        (pin (num 3) (name P3) (type passive))))
    (libpart (lib fotovoltaica-cache) (part CONN_01X04)
      (footprints
        (fp Pin_Header_Straight_1X04)
        (fp Pin_Header_Angled_1X04)
        (fp Socket_Strip_Straight_1X04)
        (fp Socket_Strip_Angled_1X04))
      (fields
        (field (name Reference) P)
        (field (name Value) CONN_01X04))
      (pins
        (pin (num 1) (name P1) (type passive))
        (pin (num 2) (name P2) (type passive))
        (pin (num 3) (name P3) (type passive))
        (pin (num 4) (name P4) (type passive))))
    (libpart (lib conn) (part Conn_01x02)
      (description "Generic connector, single row, 01x02")
      (docs ~)
      (footprints
        (fp Connector*:*_??x*mm*)
        (fp Connector*:*1x??x*mm*)
        (fp Pin?Header?Straight?1X*)
        (fp Pin?Header?Angled?1X*)
        (fp Socket?Strip?Straight?1X*)
        (fp Socket?Strip?Angled?1X*))
      (fields
        (field (name Reference) J)
        (field (name Value) Conn_01x02))
      (pins
        (pin (num 1) (name Pin_1) (type passive))
        (pin (num 2) (name Pin_2) (type passive))))
    (libpart (lib fotovoltaica-cache) (part ESP-12)
      (aliases
        (alias ESP-07v2))
      (footprints
        (fp ESP-07*)
        (fp ESP-12*))
      (fields
        (field (name Reference) U)
        (field (name Value) ESP-12))
      (pins
        (pin (num 1) (name REST) (type input))
        (pin (num 2) (name ADC) (type passive))
        (pin (num 3) (name CH_PD) (type input))
        (pin (num 4) (name GPIO16) (type BiDi))
        (pin (num 5) (name GPIO14) (type BiDi))
        (pin (num 6) (name GPIO12) (type BiDi))
        (pin (num 7) (name GPIO13) (type BiDi))
        (pin (num 8) (name VCC) (type power_in))
        (pin (num 9) (name GND) (type power_in))
        (pin (num 10) (name GPIO15) (type BiDi))
        (pin (num 11) (name GPIO2) (type BiDi))
        (pin (num 12) (name GPIO0) (type BiDi))
        (pin (num 13) (name GPIO4) (type BiDi))
        (pin (num 14) (name GPIO5) (type BiDi))
        (pin (num 15) (name RXD) (type input))
        (pin (num 16) (name TXD) (type output))))
    (libpart (lib device) (part R)
      (description Resistor)
      (footprints
        (fp R_*)
        (fp R_*))
      (fields
        (field (name Reference) R)
        (field (name Value) R))
      (pins
        (pin (num 1) (name ~) (type passive))
        (pin (num 2) (name ~) (type passive))))
    (libpart (lib fotovoltaica-cache) (part SW_PUSH)
      (fields
        (field (name Reference) SW)
        (field (name Value) SW_PUSH))
      (pins
        (pin (num 1) (name 1) (type passive))
        (pin (num 2) (name 2) (type passive)))))
  (libraries
    (library (logical arduino_shieldsNCL)
      (uri /home/edge/Documentos/arduino_mega_shield_fotovotaica/fotovoltaica/Arduino_Shield_Modules_for_KiCad_V3/arduino_shieldsNCL.lib))
    (library (logical conn)
      (uri /usr/share/kicad/library/conn.lib))
    (library (logical device)
      (uri /usr/share/kicad/library/device.lib))
    (library (logical fotovoltaica-cache)
      (uri /home/edge/Documentos/arduino_mega_shield_fotovotaica/fotovoltaica/fotovoltaica-cache.lib)))
  (nets
    (net (code 1) (name "Net-(SHIELD1-Pad10)")
      (node (ref SHIELD1) (pin 10)))
    (net (code 2) (name "Net-(J1-Pad2)")
      (node (ref J1) (pin 2))
      (node (ref U1) (pin 11)))
    (net (code 3) (name "Net-(J1-Pad1)")
      (node (ref U1) (pin 12))
      (node (ref J1) (pin 1)))
    (net (code 4) (name "Net-(SHIELD1-PadAREF)")
      (node (ref SHIELD1) (pin AREF)))
    (net (code 5) (name "Net-(SHIELD1-Pad13)")
      (node (ref SHIELD1) (pin 13)))
    (net (code 6) (name "Net-(SHIELD1-Pad12)")
      (node (ref SHIELD1) (pin 12)))
    (net (code 7) (name "Net-(SHIELD1-Pad11)")
      (node (ref SHIELD1) (pin 11)))
    (net (code 8) (name "Net-(SHIELD1-Pad9)")
      (node (ref SHIELD1) (pin 9)))
    (net (code 9) (name "Net-(SHIELD1-Pad8)")
      (node (ref SHIELD1) (pin 8)))
    (net (code 10) (name "Net-(SHIELD1-Pad7)")
      (node (ref SHIELD1) (pin 7)))
    (net (code 11) (name "Net-(SHIELD1-Pad6)")
      (node (ref SHIELD1) (pin 6)))
    (net (code 12) (name "Net-(SHIELD1-Pad5)")
      (node (ref SHIELD1) (pin 5)))
    (net (code 13) (name "Net-(SHIELD1-Pad4)")
      (node (ref SHIELD1) (pin 4)))
    (net (code 14) (name "Net-(SHIELD1-Pad3)")
      (node (ref SHIELD1) (pin 3)))
    (net (code 15) (name "Net-(SHIELD1-Pad2)")
      (node (ref SHIELD1) (pin 2)))
    (net (code 16) (name "Net-(SHIELD1-Pad14)")
      (node (ref SHIELD1) (pin 14)))
    (net (code 17) (name "Net-(SHIELD1-Pad15)")
      (node (ref SHIELD1) (pin 15)))
    (net (code 18) (name GND)
      (node (ref SHIELD1) (pin GND2))
      (node (ref SW1) (pin 1))
      (node (ref P4) (pin 3))
      (node (ref R5) (pin 1))
      (node (ref SHIELD1) (pin GND1))
      (node (ref SHIELD1) (pin GND5))
      (node (ref SHIELD1) (pin GND4))
      (node (ref SHIELD1) (pin GND3))
      (node (ref U1) (pin 9))
      (node (ref P2) (pin 1))
      (node (ref SW2) (pin 1))
      (node (ref P1) (pin 3))
      (node (ref P5) (pin 1))
      (node (ref P3) (pin 3)))
    (net (code 19) (name "Net-(SHIELD1-Pad16)")
      (node (ref SHIELD1) (pin 16)))
    (net (code 20) (name "Net-(U1-Pad13)")
      (node (ref U1) (pin 13)))
    (net (code 21) (name "Net-(SHIELD1-Pad52)")
      (node (ref SHIELD1) (pin 52)))
    (net (code 22) (name "Net-(SHIELD1-Pad42)")
      (node (ref SHIELD1) (pin 42)))
    (net (code 23) (name "Net-(SHIELD1-Pad43)")
      (node (ref SHIELD1) (pin 43)))
    (net (code 24) (name "Net-(SHIELD1-Pad44)")
      (node (ref SHIELD1) (pin 44)))
    (net (code 25) (name "Net-(SHIELD1-Pad45)")
      (node (ref SHIELD1) (pin 45)))
    (net (code 26) (name "Net-(SHIELD1-Pad46)")
      (node (ref SHIELD1) (pin 46)))
    (net (code 27) (name "Net-(SHIELD1-Pad47)")
      (node (ref SHIELD1) (pin 47)))
    (net (code 28) (name "Net-(SHIELD1-Pad48)")
      (node (ref SHIELD1) (pin 48)))
    (net (code 29) (name "Net-(SHIELD1-Pad49)")
      (node (ref SHIELD1) (pin 49)))
    (net (code 30) (name "Net-(SHIELD1-Pad50)")
      (node (ref SHIELD1) (pin 50)))
    (net (code 31) (name "Net-(SHIELD1-Pad51)")
      (node (ref SHIELD1) (pin 51)))
    (net (code 32) (name "Net-(SHIELD1-Pad41)")
      (node (ref SHIELD1) (pin 41)))
    (net (code 33) (name "Net-(SHIELD1-Pad53)")
      (node (ref SHIELD1) (pin 53)))
    (net (code 34) (name "Net-(SHIELD1-PadAD15)")
      (node (ref SHIELD1) (pin AD15)))
    (net (code 35) (name "Net-(SHIELD1-PadAD14)")
      (node (ref SHIELD1) (pin AD14)))
    (net (code 36) (name "Net-(SHIELD1-PadAD13)")
      (node (ref SHIELD1) (pin AD13)))
    (net (code 37) (name "Net-(SHIELD1-PadAD12)")
      (node (ref SHIELD1) (pin AD12)))
    (net (code 38) (name "Net-(SHIELD1-PadAD11)")
      (node (ref SHIELD1) (pin AD11)))
    (net (code 39) (name "Net-(SHIELD1-PadAD10)")
      (node (ref SHIELD1) (pin AD10)))
    (net (code 40) (name "Net-(SHIELD1-PadAD7)")
      (node (ref SHIELD1) (pin AD7)))
    (net (code 41) (name "Net-(SHIELD1-PadAD6)")
      (node (ref SHIELD1) (pin AD6)))
    (net (code 42) (name "Net-(SHIELD1-PadAD5)")
      (node (ref SHIELD1) (pin AD5)))
    (net (code 43) (name "Net-(SHIELD1-Pad31)")
      (node (ref SHIELD1) (pin 31)))
    (net (code 44) (name "Net-(SHIELD1-Pad17)")
      (node (ref SHIELD1) (pin 17)))
    (net (code 45) (name "Net-(SHIELD1-Pad18)")
      (node (ref SHIELD1) (pin 18)))
    (net (code 46) (name "Net-(SHIELD1-Pad19)")
      (node (ref SHIELD1) (pin 19)))
    (net (code 47) (name "Net-(SHIELD1-Pad22)")
      (node (ref SHIELD1) (pin 22)))
    (net (code 48) (name "Net-(SHIELD1-Pad23)")
      (node (ref SHIELD1) (pin 23)))
    (net (code 49) (name "Net-(SHIELD1-Pad26)")
      (node (ref SHIELD1) (pin 26)))
    (net (code 50) (name "Net-(SHIELD1-Pad27)")
      (node (ref SHIELD1) (pin 27)))
    (net (code 51) (name "Net-(SHIELD1-Pad28)")
      (node (ref SHIELD1) (pin 28)))
    (net (code 52) (name "Net-(SHIELD1-Pad29)")
      (node (ref SHIELD1) (pin 29)))
    (net (code 53) (name "Net-(SHIELD1-Pad30)")
      (node (ref SHIELD1) (pin 30)))
    (net (code 54) (name "Net-(SHIELD1-Pad32)")
      (node (ref SHIELD1) (pin 32)))
    (net (code 55) (name "Net-(SHIELD1-Pad33)")
      (node (ref SHIELD1) (pin 33)))
    (net (code 56) (name "Net-(SHIELD1-Pad34)")
      (node (ref SHIELD1) (pin 34)))
    (net (code 57) (name "Net-(SHIELD1-Pad35)")
      (node (ref SHIELD1) (pin 35)))
    (net (code 58) (name "Net-(SHIELD1-Pad36)")
      (node (ref SHIELD1) (pin 36)))
    (net (code 59) (name "Net-(SHIELD1-Pad37)")
      (node (ref SHIELD1) (pin 37)))
    (net (code 60) (name "Net-(SHIELD1-Pad38)")
      (node (ref SHIELD1) (pin 38)))
    (net (code 61) (name "Net-(SHIELD1-Pad39)")
      (node (ref SHIELD1) (pin 39)))
    (net (code 62) (name "Net-(SHIELD1-Pad40)")
      (node (ref SHIELD1) (pin 40)))
    (net (code 63) (name +5VA)
      (node (ref SHIELD1) (pin 5V_4))
      (node (ref P5) (pin 2)))
    (net (code 64) (name +3V3)
      (node (ref U1) (pin 3))
      (node (ref U1) (pin 8))
      (node (ref SHIELD1) (pin 3V3))
      (node (ref R4) (pin 2))
      (node (ref R3) (pin 1)))
    (net (code 65) (name "Net-(R5-Pad2)")
      (node (ref U1) (pin 10))
      (node (ref R5) (pin 2)))
    (net (code 66) (name "Net-(U1-Pad14)")
      (node (ref U1) (pin 14)))
    (net (code 67) (name "Net-(SHIELD1-PadAD4)")
      (node (ref SHIELD1) (pin AD4)))
    (net (code 68) (name "Net-(U1-Pad6)")
      (node (ref U1) (pin 6)))
    (net (code 69) (name "Net-(U1-Pad5)")
      (node (ref U1) (pin 5)))
    (net (code 70) (name "Net-(U1-Pad4)")
      (node (ref U1) (pin 4)))
    (net (code 71) (name "Net-(U1-Pad2)")
      (node (ref U1) (pin 2)))
    (net (code 72) (name "Net-(P2-Pad2)")
      (node (ref P2) (pin 2)))
    (net (code 73) (name "Net-(R4-Pad1)")
      (node (ref SW2) (pin 2))
      (node (ref U1) (pin 7))
      (node (ref R4) (pin 1)))
    (net (code 74) (name "Net-(R3-Pad2)")
      (node (ref R3) (pin 2))
      (node (ref U1) (pin 1))
      (node (ref SW1) (pin 2)))
    (net (code 75) (name "Net-(P5-Pad4)")
      (node (ref SHIELD1) (pin 21))
      (node (ref P5) (pin 4)))
    (net (code 76) (name "Net-(P5-Pad3)")
      (node (ref SHIELD1) (pin 20))
      (node (ref P5) (pin 3)))
    (net (code 77) (name +5V)
      (node (ref R1) (pin 2))
      (node (ref P3) (pin 1))
      (node (ref SHIELD1) (pin 5V))
      (node (ref P1) (pin 1)))
    (net (code 78) (name "Net-(P1-Pad2)")
      (node (ref P1) (pin 2))
      (node (ref R1) (pin 1))
      (node (ref SHIELD1) (pin 24)))
    (net (code 79) (name +5VD)
      (node (ref P4) (pin 1))
      (node (ref R2) (pin 2))
      (node (ref SHIELD1) (pin 5V_5)))
    (net (code 80) (name "Net-(P4-Pad2)")
      (node (ref R2) (pin 1))
      (node (ref P4) (pin 2))
      (node (ref SHIELD1) (pin 25)))
    (net (code 81) (name "Net-(SHIELD1-PadV_IN)")
      (node (ref SHIELD1) (pin V_IN)))
    (net (code 82) (name "Net-(SHIELD1-PadRST)")
      (node (ref SHIELD1) (pin RST)))
    (net (code 83) (name "Net-(P3-Pad2)")
      (node (ref SHIELD1) (pin AD9))
      (node (ref P3) (pin 2)))
    (net (code 84) (name "Net-(P2-Pad3)")
      (node (ref SHIELD1) (pin AD8))
      (node (ref P2) (pin 3)))
    (net (code 85) (name "Net-(SHIELD1-PadAD3)")
      (node (ref SHIELD1) (pin AD3)))
    (net (code 86) (name "Net-(SHIELD1-PadAD2)")
      (node (ref SHIELD1) (pin AD2)))
    (net (code 87) (name "Net-(SHIELD1-PadAD1)")
      (node (ref SHIELD1) (pin AD1)))
    (net (code 88) (name "Net-(SHIELD1-PadAD0)")
      (node (ref SHIELD1) (pin AD0)))
    (net (code 89) (name RX0)
      (node (ref SHIELD1) (pin 0))
      (node (ref U1) (pin 16)))
    (net (code 90) (name TX0)
      (node (ref U1) (pin 15))
      (node (ref SHIELD1) (pin 1)))))