EESchema Schematic File Version 2
LIBS:power
LIBS:device
LIBS:transistors
LIBS:conn
LIBS:linear
LIBS:regul
LIBS:74xx
LIBS:cmos4000
LIBS:adc-dac
LIBS:memory
LIBS:xilinx
LIBS:microcontrollers
LIBS:dsp
LIBS:microchip
LIBS:analog_switches
LIBS:motorola
LIBS:texas
LIBS:intel
LIBS:audio
LIBS:interface
LIBS:digital-audio
LIBS:philips
LIBS:display
LIBS:cypress
LIBS:siliconi
LIBS:opto
LIBS:atmel
LIBS:contrib
LIBS:valves
LIBS:arduino_shieldsNCL
LIBS:fotovoltaica-cache
EELAYER 25 0
EELAYER END
$Descr A4 11693 8268
encoding utf-8
Sheet 1 1
Title ""
Date ""
Rev ""
Comp ""
Comment1 ""
Comment2 ""
Comment3 ""
Comment4 ""
$EndDescr
Wire Wire Line
	5850 2500 5850 3000
$Comp
L CONN_01X03 P3
U 1 1 59E7B7C3
P 5200 2300
F 0 "P3" H 5200 2500 50  0000 C CNN
F 1 "Corrente" V 5300 2300 50  0000 C CNN
F 2 "Pin_Headers:Pin_Header_Straight_1x03_Pitch2.54mm" H 5200 2300 50  0001 C CNN
F 3 "" H 5200 2300 50  0000 C CNN
	1    5200 2300
	0    -1   -1   0   
$EndComp
Wire Wire Line
	5100 2500 5100 2900
Wire Wire Line
	5200 2500 5200 3100
$Comp
L CONN_01X04 P5
U 1 1 59E7B8C7
P 9750 1700
F 0 "P5" H 9750 1950 50  0000 C CNN
F 1 "CONN_01X04" V 9850 1700 50  0000 C CNN
F 2 "Terminal_Blocks:TerminalBlock_Pheonix_PT-3.5mm_4pol" H 9750 1700 50  0001 C CNN
F 3 "" H 9750 1700 50  0000 C CNN
	1    9750 1700
	0    -1   -1   0   
$EndComp
Wire Wire Line
	9800 1900 9800 2750
Wire Wire Line
	9900 1900 9900 2850
$Comp
L CONN_01X03 P1
U 1 1 59E7B9D5
P 9800 3150
F 0 "P1" H 9800 3350 50  0000 C CNN
F 1 "TEMP1" V 9900 3150 50  0000 C CNN
F 2 "Terminal_Blocks:TerminalBlock_Pheonix_PT-3.5mm_3pol" H 9800 3150 50  0001 C CNN
F 3 "" H 9800 3150 50  0000 C CNN
	1    9800 3150
	0    -1   -1   0   
$EndComp
Wire Wire Line
	9700 3500 9700 3350
Wire Wire Line
	9500 3500 9700 3500
$Comp
L R R1
U 1 1 59E7BA42
P 9650 3800
F 0 "R1" V 9730 3800 50  0000 C CNN
F 1 "4.7k" V 9650 3800 50  0000 C CNN
F 2 "Resistors_ThroughHole:Resistor_Horizontal_RM10mm" V 9580 3800 50  0001 C CNN
F 3 "" H 9650 3800 50  0000 C CNN
	1    9650 3800
	0    1    1    0   
$EndComp
Wire Wire Line
	9800 4200 9800 3350
Wire Wire Line
	9900 3350 9900 3600
Connection ~ 9800 3800
$Comp
L CONN_01X03 P4
U 1 1 59E7BCBC
P 10600 3150
F 0 "P4" H 10600 3350 50  0000 C CNN
F 1 "TEMP2" V 10700 3150 50  0000 C CNN
F 2 "Terminal_Blocks:TerminalBlock_Pheonix_PT-3.5mm_3pol" H 10600 3150 50  0001 C CNN
F 3 "" H 10600 3150 50  0000 C CNN
	1    10600 3150
	0    -1   -1   0   
$EndComp
$Comp
L R R2
U 1 1 59E7BD1A
P 10450 3800
F 0 "R2" V 10530 3800 50  0000 C CNN
F 1 "4.7k" V 10450 3800 50  0000 C CNN
F 2 "Resistors_ThroughHole:Resistor_Horizontal_RM10mm" V 10380 3800 50  0001 C CNN
F 3 "" H 10450 3800 50  0000 C CNN
	1    10450 3800
	0    1    1    0   
$EndComp
Wire Wire Line
	10600 4300 10600 3350
Wire Wire Line
	10300 3500 10500 3500
Wire Wire Line
	10500 3500 10500 3350
Connection ~ 10600 3800
Wire Wire Line
	10700 3350 10700 3600
Wire Wire Line
	4050 1850 4400 1850
Wire Wire Line
	4050 1950 4400 1950
$Comp
L SW_PUSH SW1
U 1 1 59E7C258
P 1300 1850
F 0 "SW1" H 1450 1960 50  0000 C CNN
F 1 "SW_PUSH" H 1300 1770 50  0000 C CNN
F 2 "Buttons_Switches_THT:SW_PUSH_6mm" H 1300 1850 50  0001 C CNN
F 3 "" H 1300 1850 50  0000 C CNN
	1    1300 1850
	1    0    0    -1  
$EndComp
Wire Wire Line
	1000 1850 800  1850
Wire Wire Line
	2250 1850 1600 1850
Connection ~ 1900 1850
$Comp
L SW_PUSH SW2
U 1 1 59E7C54E
P 1300 2450
F 0 "SW2" H 1450 2560 50  0000 C CNN
F 1 "SW_PUSH" H 1300 2370 50  0000 C CNN
F 2 "Buttons_Switches_THT:SW_PUSH_6mm" H 1300 2450 50  0001 C CNN
F 3 "" H 1300 2450 50  0000 C CNN
	1    1300 2450
	1    0    0    -1  
$EndComp
Wire Wire Line
	1000 2450 800  2450
Wire Wire Line
	2250 2450 1600 2450
Connection ~ 1900 2450
$Comp
L R R3
U 1 1 59E7C708
P 1900 1500
F 0 "R3" V 1980 1500 50  0000 C CNN
F 1 "R" V 1900 1500 50  0000 C CNN
F 2 "Resistors_ThroughHole:Resistor_Horizontal_RM10mm" V 1830 1500 50  0001 C CNN
F 3 "" H 1900 1500 50  0000 C CNN
	1    1900 1500
	1    0    0    -1  
$EndComp
Wire Wire Line
	1900 1350 1900 1250
Wire Wire Line
	1900 1850 1900 1650
$Comp
L R R4
U 1 1 59E7C7AB
P 1900 2800
F 0 "R4" V 1980 2800 50  0000 C CNN
F 1 "R" V 1900 2800 50  0000 C CNN
F 2 "Resistors_ThroughHole:Resistor_Horizontal_RM10mm" V 1830 2800 50  0001 C CNN
F 3 "" H 1900 2800 50  0000 C CNN
	1    1900 2800
	1    0    0    -1  
$EndComp
Wire Wire Line
	1900 2650 1900 2450
Wire Wire Line
	1900 3100 1900 2950
NoConn ~ 4050 2050
NoConn ~ 2250 2350
NoConn ~ 2250 2250
NoConn ~ 2250 2150
NoConn ~ 2250 1950
Wire Wire Line
	800  1850 800  2100
Wire Wire Line
	800  2450 800  2750
Wire Wire Line
	3150 1150 3150 1250
NoConn ~ 5750 2500
$Comp
L CONN_01X03 P2
U 1 1 59E7B663
P 5750 2300
F 0 "P2" H 5750 2500 50  0000 C CNN
F 1 "Tensão" V 5850 2300 50  0000 C CNN
F 2 "Pin_Headers:Pin_Header_Straight_1x03_Pitch2.54mm" H 5750 2300 50  0001 C CNN
F 3 "" H 5750 2300 50  0000 C CNN
	1    5750 2300
	0    -1   -1   0   
$EndComp
$Comp
L ARDUINO_MEGA_SHIELD SHIELD1
U 1 1 59EA5768
P 7550 3350
F 0 "SHIELD1" H 7150 5850 60  0000 C CNN
F 1 "ARDUINO_MEGA_SHIELD" H 7450 650 60  0000 C CNN
F 2 "arduino_shields:ARDUINO MEGA SHIELD" H 7550 3350 60  0001 C CNN
F 3 "" H 7550 3350 60  0001 C CNN
	1    7550 3350
	1    0    0    -1  
$EndComp
Wire Wire Line
	5900 1700 6550 1700
Wire Wire Line
	8450 1100 8800 1100
Wire Wire Line
	6000 3950 6550 3950
Wire Wire Line
	6550 4050 6150 4050
Wire Wire Line
	5650 2500 5650 2750
Wire Wire Line
	3150 3050 3150 3200
Text GLabel 4400 1850 2    60   Input ~ 0
RX0
Text GLabel 4400 1950 2    60   Input ~ 0
TX0
Wire Wire Line
	5850 3000 6550 3000
Wire Wire Line
	5200 3100 6550 3100
Wire Wire Line
	8450 3400 9300 3400
Wire Wire Line
	8450 3500 9400 3500
Wire Wire Line
	8450 4200 9800 4200
Wire Wire Line
	8450 4300 10600 4300
Wire Wire Line
	8450 2500 8700 2500
Wire Wire Line
	8450 2600 8700 2600
Text GLabel 8700 2500 2    60   Input ~ 0
TX0
Text GLabel 8700 2600 2    60   Input ~ 0
RX0
NoConn ~ 6550 1400
NoConn ~ 6550 1900
NoConn ~ 6550 2100
NoConn ~ 6550 2200
NoConn ~ 6550 2300
NoConn ~ 6550 2400
NoConn ~ 6550 2500
NoConn ~ 6550 2600
NoConn ~ 6550 2700
NoConn ~ 6550 2800
NoConn ~ 6550 3200
NoConn ~ 6550 3300
NoConn ~ 6550 3400
NoConn ~ 6550 3500
NoConn ~ 6550 3600
NoConn ~ 6550 3700
NoConn ~ 6550 4200
NoConn ~ 6550 4300
NoConn ~ 6550 4400
NoConn ~ 6550 4500
NoConn ~ 6550 4650
NoConn ~ 6550 4750
NoConn ~ 6550 4850
NoConn ~ 6550 4950
NoConn ~ 6550 5050
NoConn ~ 6550 5150
NoConn ~ 6550 5250
NoConn ~ 6550 5350
NoConn ~ 6550 5500
NoConn ~ 6550 5600
NoConn ~ 6550 5700
NoConn ~ 6550 5800
NoConn ~ 8450 5550
NoConn ~ 8450 5450
NoConn ~ 8450 5350
NoConn ~ 8450 5250
NoConn ~ 8450 5150
NoConn ~ 8450 5050
NoConn ~ 8450 4950
NoConn ~ 8450 4850
NoConn ~ 8450 4700
NoConn ~ 8450 4600
NoConn ~ 8450 4500
NoConn ~ 8450 4400
NoConn ~ 8450 4100
NoConn ~ 8450 4000
NoConn ~ 8450 3300
NoConn ~ 8450 3200
NoConn ~ 8450 3100
NoConn ~ 8450 3000
NoConn ~ 8450 2900
NoConn ~ 8450 2800
NoConn ~ 8450 2400
NoConn ~ 8450 2300
NoConn ~ 8450 2200
NoConn ~ 8450 2100
NoConn ~ 8450 2000
NoConn ~ 8450 1900
NoConn ~ 8450 1700
NoConn ~ 8450 1600
NoConn ~ 8450 1500
NoConn ~ 8450 1400
NoConn ~ 8450 1300
NoConn ~ 8450 1200
NoConn ~ 8450 1000
$Comp
L Conn_01x02 J1
U 1 1 59F366AC
P 4550 2150
F 0 "J1" H 4550 2250 50  0000 C CNN
F 1 "Conn_01x02" H 4550 1950 50  0000 C CNN
F 2 "Terminal_Blocks:TerminalBlock_Pheonix_MPT-2.54mm_2pol" H 4550 2150 50  0001 C CNN
F 3 "" H 4550 2150 50  0001 C CNN
	1    4550 2150
	1    0    0    -1  
$EndComp
Wire Wire Line
	2250 2050 1950 2050
Wire Wire Line
	4050 2350 4250 2350
Wire Wire Line
	4250 2350 4250 2250
Wire Wire Line
	4250 2250 4350 2250
Wire Wire Line
	4050 2250 4200 2250
Wire Wire Line
	4200 2250 4200 2150
Wire Wire Line
	4200 2150 4350 2150
NoConn ~ 4050 2150
Wire Wire Line
	8450 3850 9050 3850
$Comp
L GND #PWR01
U 1 1 5A10BB53
P 4550 2450
F 0 "#PWR01" H 4550 2200 50  0001 C CNN
F 1 "GND" H 4550 2300 50  0000 C CNN
F 2 "" H 4550 2450 50  0000 C CNN
F 3 "" H 4550 2450 50  0000 C CNN
	1    4550 2450
	1    0    0    -1  
$EndComp
$Comp
L GND #PWR02
U 1 1 5A10BB91
P 3150 3200
F 0 "#PWR02" H 3150 2950 50  0001 C CNN
F 1 "GND" H 3150 3050 50  0000 C CNN
F 2 "" H 3150 3200 50  0000 C CNN
F 3 "" H 3150 3200 50  0000 C CNN
	1    3150 3200
	1    0    0    -1  
$EndComp
$Comp
L GND #PWR03
U 1 1 5A10BBCF
P 800 2750
F 0 "#PWR03" H 800 2500 50  0001 C CNN
F 1 "GND" H 800 2600 50  0000 C CNN
F 2 "" H 800 2750 50  0000 C CNN
F 3 "" H 800 2750 50  0000 C CNN
	1    800  2750
	1    0    0    -1  
$EndComp
$Comp
L GND #PWR04
U 1 1 5A10BD26
P 9900 3600
F 0 "#PWR04" H 9900 3350 50  0001 C CNN
F 1 "GND" H 9900 3450 50  0000 C CNN
F 2 "" H 9900 3600 50  0000 C CNN
F 3 "" H 9900 3600 50  0000 C CNN
	1    9900 3600
	1    0    0    -1  
$EndComp
$Comp
L GND #PWR05
U 1 1 5A10BD64
P 10700 3600
F 0 "#PWR05" H 10700 3350 50  0001 C CNN
F 1 "GND" H 10700 3450 50  0000 C CNN
F 2 "" H 10700 3600 50  0000 C CNN
F 3 "" H 10700 3600 50  0000 C CNN
	1    10700 3600
	1    0    0    -1  
$EndComp
$Comp
L GND #PWR06
U 1 1 5A10BE9E
P 5650 2750
F 0 "#PWR06" H 5650 2500 50  0001 C CNN
F 1 "GND" H 5650 2600 50  0000 C CNN
F 2 "" H 5650 2750 50  0000 C CNN
F 3 "" H 5650 2750 50  0000 C CNN
	1    5650 2750
	1    0    0    -1  
$EndComp
$Comp
L GND #PWR07
U 1 1 5A10BEDC
P 5300 2750
F 0 "#PWR07" H 5300 2500 50  0001 C CNN
F 1 "GND" H 5300 2600 50  0000 C CNN
F 2 "" H 5300 2750 50  0000 C CNN
F 3 "" H 5300 2750 50  0000 C CNN
	1    5300 2750
	1    0    0    -1  
$EndComp
$Comp
L GND #PWR08
U 1 1 5A10BFD0
P 9450 2250
F 0 "#PWR08" H 9450 2000 50  0001 C CNN
F 1 "GND" H 9450 2100 50  0000 C CNN
F 2 "" H 9450 2250 50  0000 C CNN
F 3 "" H 9450 2250 50  0000 C CNN
	1    9450 2250
	1    0    0    -1  
$EndComp
$Comp
L GND #PWR09
U 1 1 5A10C15E
P 8800 1100
F 0 "#PWR09" H 8800 850 50  0001 C CNN
F 1 "GND" H 8800 950 50  0000 C CNN
F 2 "" H 8800 1100 50  0000 C CNN
F 3 "" H 8800 1100 50  0000 C CNN
	1    8800 1100
	1    0    0    -1  
$EndComp
$Comp
L GND #PWR010
U 1 1 5A10C2C2
P 6050 1800
F 0 "#PWR010" H 6050 1550 50  0001 C CNN
F 1 "GND" H 6050 1650 50  0000 C CNN
F 2 "" H 6050 1800 50  0000 C CNN
F 3 "" H 6050 1800 50  0000 C CNN
	1    6050 1800
	1    0    0    -1  
$EndComp
$Comp
L GND #PWR011
U 1 1 5A10C2F2
P 5900 1700
F 0 "#PWR011" H 5900 1450 50  0001 C CNN
F 1 "GND" H 5900 1550 50  0000 C CNN
F 2 "" H 5900 1700 50  0000 C CNN
F 3 "" H 5900 1700 50  0000 C CNN
	1    5900 1700
	1    0    0    -1  
$EndComp
$Comp
L GND #PWR012
U 1 1 5A10C56E
P 6150 4050
F 0 "#PWR012" H 6150 3800 50  0001 C CNN
F 1 "GND" H 6150 3900 50  0000 C CNN
F 2 "" H 6150 4050 50  0000 C CNN
F 3 "" H 6150 4050 50  0000 C CNN
	1    6150 4050
	1    0    0    -1  
$EndComp
$Comp
L GND #PWR013
U 1 1 5A10C5AC
P 6000 3950
F 0 "#PWR013" H 6000 3700 50  0001 C CNN
F 1 "GND" H 6000 3800 50  0000 C CNN
F 2 "" H 6000 3950 50  0000 C CNN
F 3 "" H 6000 3950 50  0000 C CNN
	1    6000 3950
	1    0    0    -1  
$EndComp
Wire Wire Line
	5300 2750 5300 2500
$Comp
L GND #PWR014
U 1 1 5A10D11C
P 800 2100
F 0 "#PWR014" H 800 1850 50  0001 C CNN
F 1 "GND" H 800 1950 50  0000 C CNN
F 2 "" H 800 2100 50  0000 C CNN
F 3 "" H 800 2100 50  0000 C CNN
	1    800  2100
	1    0    0    -1  
$EndComp
Wire Wire Line
	9300 3400 9300 2750
Wire Wire Line
	9300 2750 9800 2750
Wire Wire Line
	9400 3500 9400 2850
Wire Wire Line
	9400 2850 9900 2850
$Comp
L +3V3 #PWR015
U 1 1 5A10E0AB
P 6050 1500
F 0 "#PWR015" H 6050 1350 50  0001 C CNN
F 1 "+3V3" H 6050 1640 50  0000 C CNN
F 2 "" H 6050 1500 50  0000 C CNN
F 3 "" H 6050 1500 50  0000 C CNN
	1    6050 1500
	1    0    0    -1  
$EndComp
$Comp
L +5V #PWR016
U 1 1 5A10E0DB
P 5850 1500
F 0 "#PWR016" H 5850 1350 50  0001 C CNN
F 1 "+5V" H 5850 1640 50  0000 C CNN
F 2 "" H 5850 1500 50  0000 C CNN
F 3 "" H 5850 1500 50  0000 C CNN
	1    5850 1500
	1    0    0    -1  
$EndComp
$Comp
L +3V3 #PWR017
U 1 1 5A10E1B6
P 3150 1150
F 0 "#PWR017" H 3150 1000 50  0001 C CNN
F 1 "+3V3" H 3150 1290 50  0000 C CNN
F 2 "" H 3150 1150 50  0000 C CNN
F 3 "" H 3150 1150 50  0000 C CNN
	1    3150 1150
	1    0    0    -1  
$EndComp
$Comp
L ESP-12 U1
U 1 1 59E7C12F
P 3150 2150
F 0 "U1" H 3150 2050 50  0000 C CNN
F 1 "ESP-12" H 3150 2250 50  0000 C CNN
F 2 "ESP8266:ESP-12" H 3150 2150 50  0001 C CNN
F 3 "" H 3150 2150 50  0001 C CNN
	1    3150 2150
	1    0    0    -1  
$EndComp
$Comp
L +3V3 #PWR018
U 1 1 5A10E21E
P 1900 1250
F 0 "#PWR018" H 1900 1100 50  0001 C CNN
F 1 "+3V3" H 1900 1390 50  0000 C CNN
F 2 "" H 1900 1250 50  0000 C CNN
F 3 "" H 1900 1250 50  0000 C CNN
	1    1900 1250
	1    0    0    -1  
$EndComp
$Comp
L +3V3 #PWR019
U 1 1 5A10E48C
P 1950 2050
F 0 "#PWR019" H 1950 1900 50  0001 C CNN
F 1 "+3V3" H 1950 2190 50  0000 C CNN
F 2 "" H 1950 2050 50  0000 C CNN
F 3 "" H 1950 2050 50  0000 C CNN
	1    1950 2050
	0    -1   -1   0   
$EndComp
$Comp
L +3V3 #PWR020
U 1 1 5A10E4D9
P 1900 3100
F 0 "#PWR020" H 1900 2950 50  0001 C CNN
F 1 "+3V3" H 1900 3240 50  0000 C CNN
F 2 "" H 1900 3100 50  0000 C CNN
F 3 "" H 1900 3100 50  0000 C CNN
	1    1900 3100
	-1   0    0    1   
$EndComp
$Comp
L +5V #PWR021
U 1 1 5A10E62F
P 5100 2900
F 0 "#PWR021" H 5100 2750 50  0001 C CNN
F 1 "+5V" H 5100 3040 50  0000 C CNN
F 2 "" H 5100 2900 50  0000 C CNN
F 3 "" H 5100 2900 50  0000 C CNN
	1    5100 2900
	-1   0    0    1   
$EndComp
$Comp
L +5V #PWR022
U 1 1 5A10E821
P 9500 3950
F 0 "#PWR022" H 9500 3800 50  0001 C CNN
F 1 "+5V" H 9500 4090 50  0000 C CNN
F 2 "" H 9500 3950 50  0000 C CNN
F 3 "" H 9500 3950 50  0000 C CNN
	1    9500 3950
	-1   0    0    1   
$EndComp
Wire Wire Line
	9500 3500 9500 3950
Connection ~ 9500 3800
$Comp
L +5VA #PWR023
U 1 1 5A10EA92
P 8800 3750
F 0 "#PWR023" H 8800 3600 50  0001 C CNN
F 1 "+5VA" H 8800 3890 50  0000 C CNN
F 2 "" H 8800 3750 50  0000 C CNN
F 3 "" H 8800 3750 50  0000 C CNN
	1    8800 3750
	1    0    0    -1  
$EndComp
$Comp
L +5VD #PWR024
U 1 1 5A10EE30
P 9050 3750
F 0 "#PWR024" H 9050 3600 50  0001 C CNN
F 1 "+5VD" H 9050 3890 50  0000 C CNN
F 2 "" H 9050 3750 50  0000 C CNN
F 3 "" H 9050 3750 50  0000 C CNN
	1    9050 3750
	1    0    0    -1  
$EndComp
$Comp
L +5VD #PWR025
U 1 1 5A10EFE1
P 10300 3950
F 0 "#PWR025" H 10300 3800 50  0001 C CNN
F 1 "+5VD" H 10300 4090 50  0000 C CNN
F 2 "" H 10300 3950 50  0000 C CNN
F 3 "" H 10300 3950 50  0000 C CNN
	1    10300 3950
	-1   0    0    1   
$EndComp
Wire Wire Line
	10300 3500 10300 3950
Connection ~ 10300 3800
$Comp
L +5VA #PWR026
U 1 1 5A10FABD
P 9650 2250
F 0 "#PWR026" H 9650 2100 50  0001 C CNN
F 1 "+5VA" H 9650 2390 50  0000 C CNN
F 2 "" H 9650 2250 50  0000 C CNN
F 3 "" H 9650 2250 50  0000 C CNN
	1    9650 2250
	-1   0    0    1   
$EndComp
Wire Wire Line
	9700 1900 9700 2100
Wire Wire Line
	9700 2100 9650 2100
Wire Wire Line
	9650 2100 9650 2250
Wire Wire Line
	9600 1900 9600 2100
Wire Wire Line
	9600 2100 9450 2100
Wire Wire Line
	9450 2100 9450 2250
$Comp
L PWR_FLAG #FLG027
U 1 1 5A10FE2B
P 6350 1500
F 0 "#FLG027" H 6350 1595 50  0001 C CNN
F 1 "PWR_FLAG" H 6350 1680 50  0000 C CNN
F 2 "" H 6350 1500 50  0000 C CNN
F 3 "" H 6350 1500 50  0000 C CNN
	1    6350 1500
	1    0    0    -1  
$EndComp
$Comp
L PWR_FLAG #FLG028
U 1 1 5A110024
P 5850 1600
F 0 "#FLG028" H 5850 1695 50  0001 C CNN
F 1 "PWR_FLAG" H 5850 1780 50  0000 C CNN
F 2 "" H 5850 1600 50  0000 C CNN
F 3 "" H 5850 1600 50  0000 C CNN
	1    5850 1600
	0    -1   -1   0   
$EndComp
Wire Wire Line
	9050 3850 9050 3750
$Comp
L PWR_FLAG #FLG029
U 1 1 5A1103AD
P 8500 3750
F 0 "#FLG029" H 8500 3845 50  0001 C CNN
F 1 "PWR_FLAG" H 8500 3930 50  0000 C CNN
F 2 "" H 8500 3750 50  0000 C CNN
F 3 "" H 8500 3750 50  0000 C CNN
	1    8500 3750
	1    0    0    -1  
$EndComp
$Comp
L PWR_FLAG #FLG030
U 1 1 5A1103DD
P 9050 3850
F 0 "#FLG030" H 9050 3945 50  0001 C CNN
F 1 "PWR_FLAG" H 9050 4030 50  0000 C CNN
F 2 "" H 9050 3850 50  0000 C CNN
F 3 "" H 9050 3850 50  0000 C CNN
	1    9050 3850
	-1   0    0    1   
$EndComp
$Comp
L PWR_FLAG #FLG031
U 1 1 5A110730
P 6350 1800
F 0 "#FLG031" H 6350 1895 50  0001 C CNN
F 1 "PWR_FLAG" H 6350 1980 50  0000 C CNN
F 2 "" H 6350 1800 50  0000 C CNN
F 3 "" H 6350 1800 50  0000 C CNN
	1    6350 1800
	-1   0    0    1   
$EndComp
Wire Wire Line
	6050 1500 6550 1500
Connection ~ 6350 1500
Wire Wire Line
	6050 1800 6550 1800
Connection ~ 6350 1800
Wire Wire Line
	6550 1600 5850 1600
Wire Wire Line
	5850 1600 5850 1500
Wire Wire Line
	8450 3750 8800 3750
Connection ~ 8500 3750
$Comp
L R R5
U 1 1 5A111163
P 4300 2450
F 0 "R5" V 4380 2450 50  0000 C CNN
F 1 "10k" V 4300 2450 50  0000 C CNN
F 2 "Resistors_ThroughHole:Resistor_Horizontal_RM10mm" V 4230 2450 50  0001 C CNN
F 3 "" H 4300 2450 50  0000 C CNN
	1    4300 2450
	0    1    1    0   
$EndComp
Wire Wire Line
	4050 2450 4150 2450
Wire Wire Line
	4450 2450 4550 2450
$EndSCHEMATC
